<?xml version="1.0" encoding="UTF-8"?>
<kml xmlns="http://www.opengis.net/kml/2.2">
  <Document>
    <name>Khucongnghiep</name>
    <Style id="poly-E39E00-1000-255-nodesc-normal">
      <LineStyle>
        <color>ff009ee3</color>
        <width>1</width>
      </LineStyle>
      <PolyStyle>
        <color>ff009ee3</color>
        <fill>1</fill>
        <outline>1</outline>
      </PolyStyle>
      <BalloonStyle>
        <text><![CDATA[<h3>$[name]</h3>]]></text>
      </BalloonStyle>
    </Style>
    <Style id="poly-E39E00-1000-255-nodesc-highlight">
      <LineStyle>
        <color>ff009ee3</color>
        <width>1.5</width>
      </LineStyle>
      <PolyStyle>
        <color>ff009ee3</color>
        <fill>1</fill>
        <outline>1</outline>
      </PolyStyle>
      <BalloonStyle>
        <text><![CDATA[<h3>$[name]</h3>]]></text>
      </BalloonStyle>
    </Style>
    <StyleMap id="poly-E39E00-1000-255-nodesc">
      <Pair>
        <key>normal</key>
        <styleUrl>#poly-E39E00-1000-255-nodesc-normal</styleUrl>
      </Pair>
      <Pair>
        <key>highlight</key>
        <styleUrl>#poly-E39E00-1000-255-nodesc-highlight</styleUrl>
      </Pair>
    </StyleMap>
    <Placemark>
      <name>KCN Việt Nam Singapore 1</name>
      <styleUrl>#poly-E39E00-1000-255-nodesc</styleUrl>
      <Polygon>
        <outerBoundaryIs>
          <LinearRing>
            <tessellate>1</tessellate>
            <coordinates>
              106.707654,10.941219,0
              106.707436,10.941195,0
              106.709235,10.933671,0
              106.711713,10.923782,0
              106.716484,10.924007,0
              106.728494,10.924685,0
              106.732895,10.924981,0
              106.732941,10.925319,0
              106.733057,10.925939,0
              106.733303,10.92646,0
              106.733992,10.927226,0
              106.734851,10.928179,0
              106.735206,10.928282,0
              106.734938,10.925464,0
              106.739649,10.925382,0
              106.739941,10.930221,0
              106.740328,10.934822,0
              106.74031,10.940084,0
              106.735731,10.940095,0
              106.735424,10.940096,0
              106.723245,10.940136,0
              106.718641,10.940245,0
              106.710902,10.940419,0
              106.709189,10.940492,0
              106.709243,10.941388,0
              106.707654,10.941219,0
            </coordinates>
          </LinearRing>
        </outerBoundaryIs>
      </Polygon>
    </Placemark>
    <Placemark>
      <name>KCN Việt Hương 1</name>
      <styleUrl>#poly-E39E00-1000-255-nodesc</styleUrl>
      <Polygon>
        <outerBoundaryIs>
          <LinearRing>
            <tessellate>1</tessellate>
            <coordinates>
              106.706376,10.945132,0
              106.706485,10.944686,0
              106.706848,10.943302,0
              106.707232,10.943386,0
              106.707607,10.943474,0
              106.707786,10.942718,0
              106.70774,10.942704,0
              106.707403,10.942583,0
              106.707383,10.942554,0
              106.707506,10.941922,0
              106.707528,10.941878,0
              106.707654,10.941219,0
              106.709243,10.94139,0
              106.709189,10.940492,0
              106.710902,10.940419,0
              106.71328,10.940364,0
              106.713155,10.940761,0
              106.712842,10.941742,0
              106.712507,10.9428,0
              106.712502,10.94283,0
              106.712388,10.943185,0
              106.712078,10.944166,0
              106.711848,10.944979,0
              106.711476,10.945909,0
              106.711217,10.946594,0
              106.710894,10.947724,0
              106.710726,10.948248,0
              106.710591,10.948816,0
              106.710384,10.949533,0
              106.710156,10.950438,0
              106.709401,10.950594,0
              106.7094,10.950594,0
              106.708344,10.95082,0
              106.707501,10.95099,0
              106.707405,10.951004,0
              106.707635,10.949955,0
              106.708063,10.948312,0
              106.708058,10.948043,0
              106.708228,10.94755,0
              106.708302,10.94724,0
              106.708476,10.946492,0
              106.708327,10.946456,0
              106.708452,10.945956,0
              106.708234,10.945647,0
              106.7071,10.945389,0
              106.70712,10.945302,0
              106.706414,10.945138,0
              106.706376,10.945132,0
            </coordinates>
          </LinearRing>
        </outerBoundaryIs>
      </Polygon>
    </Placemark>
    <Placemark>
      <name>Khu Tái Định Cư Viẹt Sing</name>
      <styleUrl>#poly-E39E00-1000-255-nodesc</styleUrl>
      <Polygon>
        <outerBoundaryIs>
          <LinearRing>
            <tessellate>1</tessellate>
            <coordinates>
              106.723245,10.940136,0
              106.735424,10.940096,0
              106.735731,10.940095,0
              106.7359,10.940492,0
              106.735983,10.940702,0
              106.736029,10.940964,0
              106.736038,10.941411,0
              106.736151,10.941738,0
              106.736162,10.941844,0
              106.736339,10.942446,0
              106.736341,10.942465,0
              106.736226,10.94247,0
              106.736072,10.94248,0
              106.736013,10.942437,0
              106.735888,10.942634,0
              106.735991,10.94293,0
              106.736207,10.943254,0
              106.73621,10.943262,0
              106.735813,10.943453,0
              106.736024,10.943628,0
              106.736334,10.943869,0
              106.736336,10.943871,0
              106.736563,10.944033,0
              106.736567,10.944096,0
              106.736601,10.944112,0
              106.736614,10.944112,0
              106.736806,10.944144,0
              106.736863,10.944135,0
              106.737044,10.944318,0
              106.737124,10.944397,0
              106.737359,10.944636,0
              106.737542,10.94482,0
              106.736765,10.946415,0
              106.736756,10.946419,0
              106.736345,10.94661,0
              106.736045,10.94723,0
              106.736018,10.947238,0
              106.73505,10.947536,0
              106.734981,10.94758,0
              106.734541,10.947618,0
              106.734523,10.9477,0
              106.734702,10.948705,0
              106.733992,10.948892,0
              106.733992,10.948398,0
              106.734088,10.948001,0
              106.734117,10.94788,0
              106.734141,10.947777,0
              106.734185,10.947495,0
              106.734293,10.947088,0
              106.73405,10.947062,0
              106.733445,10.94701,0
              106.733365,10.947537,0
              106.733292,10.948761,0
              106.733285,10.949084,0
              106.733085,10.949115,0
              106.732102,10.949204,0
              106.73203,10.948217,0
              106.732001,10.948206,0
              106.731531,10.948223,0
              106.731322,10.948241,0
              106.73092,10.948292,0
              106.730645,10.94833,0
              106.73038,10.94836,0
              106.730192,10.948384,0
              106.729429,10.948441,0
              106.729397,10.948443,0
              106.728483,10.948512,0
              106.728478,10.948534,0
              106.728475,10.948543,0
              106.72612,10.948705,0
              106.725541,10.948591,0
              106.725192,10.947411,0
              106.725029,10.947348,0
              106.725056,10.947148,0
              106.725076,10.94696,0
              106.725084,10.946863,0
              106.724751,10.94674,0
              106.724567,10.946666,0
              106.723962,10.946349,0
              106.723614,10.94616,0
              106.723493,10.946079,0
              106.723192,10.945839,0
              106.723139,10.945739,0
              106.723113,10.945658,0
              106.723043,10.945233,0
              106.723024,10.945107,0
              106.723009,10.945038,0
              106.722963,10.94491,0
              106.722888,10.944743,0
              106.722789,10.944506,0
              106.72276,10.944391,0
              106.722751,10.94434,0
              106.722752,10.944274,0
              106.722766,10.94405,0
              106.722768,10.94389,0
              106.722764,10.943774,0
              106.722823,10.94358,0
              106.72283,10.943564,0
              106.722824,10.943447,0
              106.722818,10.943167,0
              106.722815,10.942935,0
              106.722942,10.942628,0
              106.723047,10.941618,0
              106.723219,10.940429,0
              106.723245,10.940136,0
            </coordinates>
          </LinearRing>
        </outerBoundaryIs>
      </Polygon>
    </Placemark>
    <Placemark>
      <name>KCN Đồng An</name>
      <styleUrl>#poly-E39E00-1000-255-nodesc</styleUrl>
      <Polygon>
        <outerBoundaryIs>
          <LinearRing>
            <tessellate>1</tessellate>
            <coordinates>
              106.734953,10.897347,0
              106.734554,10.897636,0
              106.733465,10.898531,0
              106.733315,10.898625,0
              106.7331,10.898759,0
              106.732433,10.899174,0
              106.731235,10.900584,0
              106.731186,10.900645,0
              106.730823,10.901099,0
              106.730161,10.901634,0
              106.72967,10.902275,0
              106.728382,10.902473,0
              106.727131,10.902894,0
              106.726731,10.902982,0
              106.725871,10.903179,0
              106.725555,10.903212,0
              106.724735,10.902827,0
              106.724131,10.902704,0
              106.722749,10.903039,0
              106.720862,10.903611,0
              106.719688,10.900933,0
              106.718409,10.900711,0
              106.718038,10.899533,0
              106.718242,10.899172,0
              106.718521,10.89868,0
              106.718884,10.898413,0
              106.718979,10.898456,0
              106.719102,10.898362,0
              106.719205,10.898542,0
              106.720127,10.897827,0
              106.720295,10.898169,0
              106.721501,10.897441,0
              106.721676,10.897426,0
              106.721162,10.895983,0
              106.721467,10.895816,0
              106.721218,10.895429,0
              106.721713,10.895048,0
              106.721814,10.895132,0
              106.722141,10.894901,0
              106.722262,10.894153,0
              106.722553,10.894001,0
              106.723657,10.895565,0
              106.724137,10.895212,0
              106.72429,10.895369,0
              106.724349,10.895324,0
              106.723886,10.894809,0
              106.723912,10.894743,0
              106.723814,10.89463,0
              106.724501,10.894068,0
              106.725066,10.894726,0
              106.725586,10.894075,0
              106.726059,10.893407,0
              106.725829,10.893242,0
              106.725892,10.89315,0
              106.726089,10.892676,0
              106.726583,10.893155,0
              106.726656,10.893164,0
              106.727178,10.893234,0
              106.727438,10.893314,0
              106.727543,10.893385,0
              106.727902,10.893746,0
              106.729061,10.894259,0
              106.729343,10.893568,0
              106.730108,10.893911,0
              106.730243,10.893641,0
              106.730786,10.894067,0
              106.730605,10.894298,0
              106.731414,10.894885,0
              106.731507,10.894798,0
              106.731842,10.894323,0
              106.733509,10.895882,0
              106.734289,10.896623,0
              106.734953,10.897347,0
            </coordinates>
          </LinearRing>
        </outerBoundaryIs>
      </Polygon>
    </Placemark>
    <Placemark>
      <name>KCN Sóng Thần 1</name>
      <styleUrl>#poly-E39E00-1000-255-nodesc</styleUrl>
      <Polygon>
        <outerBoundaryIs>
          <LinearRing>
            <tessellate>1</tessellate>
            <coordinates>
              106.750307,10.877049,0
              106.750253,10.877732,0
              106.750242,10.878025,0
              106.750297,10.878641,0
              106.750307,10.880572,0
              106.750359,10.881124,0
              106.750412,10.881404,0
              106.750525,10.881819,0
              106.750739,10.882357,0
              106.75118,10.882915,0
              106.751822,10.882879,0
              106.75189,10.88329,0
              106.752789,10.883507,0
              106.753356,10.883387,0
              106.754008,10.88358,0
              106.754058,10.88428,0
              106.754229,10.885009,0
              106.754187,10.885525,0
              106.754059,10.886314,0
              106.754596,10.886058,0
              106.754583,10.886014,0
              106.754889,10.885942,0
              106.754926,10.885929,0
              106.75492,10.885872,0
              106.755624,10.8859,0
              106.755612,10.886125,0
              106.75556,10.886437,0
              106.755284,10.88688,0
              106.755042,10.886998,0
              106.755507,10.88794,0
              106.755499,10.888025,0
              106.755353,10.888401,0
              106.754759,10.889164,0
              106.754557,10.889245,0
              106.754574,10.889287,0
              106.75478,10.889908,0
              106.754668,10.889957,0
              106.754756,10.890341,0
              106.754948,10.890735,0
              106.754604,10.890928,0
              106.753094,10.891775,0
              106.753937,10.892958,0
              106.754052,10.893152,0
              106.750019,10.895432,0
              106.749887,10.895458,0
              106.748205,10.895358,0
              106.747284,10.895297,0
              106.746792,10.895263,0
              106.745036,10.895114,0
              106.743444,10.895164,0
              106.74195,10.895302,0
              106.741731,10.895335,0
              106.740844,10.895418,0
              106.740698,10.894448,0
              106.740701,10.89362,0
              106.742723,10.893382,0
              106.742739,10.893345,0
              106.742688,10.893123,0
              106.742589,10.892609,0
              106.742507,10.892618,0
              106.742435,10.891972,0
              106.742205,10.892003,0
              106.74199,10.890826,0
              106.743682,10.890546,0
              106.745679,10.89001,0
              106.746151,10.889767,0
              106.744535,10.887529,0
              106.742753,10.885034,0
              106.742653,10.884606,0
              106.742169,10.883286,0
              106.741839,10.882151,0
              106.742226,10.881845,0
              106.742741,10.882253,0
              106.74296,10.882373,0
              106.743253,10.882633,0
              106.743779,10.881923,0
              106.743283,10.881362,0
              106.742894,10.881086,0
              106.743356,10.880531,0
              106.744528,10.879263,0
              106.74467,10.879167,0
              106.745214,10.878611,0
              106.745386,10.878408,0
              106.746356,10.878983,0
              106.746747,10.879231,0
              106.747147,10.878549,0
              106.748069,10.879204,0
              106.748451,10.878789,0
              106.748422,10.878758,0
              106.748539,10.878625,0
              106.748706,10.8784,0
              106.748738,10.878414,0
              106.749402,10.877219,0
              106.749561,10.877097,0
              106.749966,10.877079,0
              106.750307,10.877049,0
            </coordinates>
          </LinearRing>
        </outerBoundaryIs>
      </Polygon>
    </Placemark>
    <Placemark>
      <name>KCN Sóng Thần 2</name>
      <styleUrl>#poly-E39E00-1000-255-nodesc</styleUrl>
      <Polygon>
        <outerBoundaryIs>
          <LinearRing>
            <tessellate>1</tessellate>
            <coordinates>
              106.754604,10.890928,0
              106.755117,10.891996,0
              106.75642,10.894676,0
              106.757356,10.896505,0
              106.757742,10.897034,0
              106.759516,10.899216,0
              106.760334,10.900178,0
              106.760224,10.900309,0
              106.756717,10.901976,0
              106.753562,10.903518,0
              106.753144,10.903561,0
              106.753062,10.903606,0
              106.749337,10.903819,0
              106.748471,10.903838,0
              106.747145,10.903853,0
              106.747147,10.903987,0
              106.747185,10.907843,0
              106.745719,10.908781,0
              106.744694,10.90941,0
              106.744093,10.909899,0
              106.744031,10.909851,0
              106.743105,10.910605,0
              106.743024,10.910871,0
              106.746822,10.911907,0
              106.749611,10.912681,0
              106.749571,10.912808,0
              106.748916,10.912917,0
              106.748826,10.912908,0
              106.748766,10.912928,0
              106.748698,10.912939,0
              106.748412,10.913057,0
              106.748202,10.913201,0
              106.747916,10.913339,0
              106.747673,10.913764,0
              106.747272,10.914641,0
              106.747198,10.914757,0
              106.747008,10.915346,0
              106.746965,10.915402,0
              106.746298,10.916992,0
              106.746063,10.917557,0
              106.745974,10.917873,0
              106.74587,10.918429,0
              106.745853,10.918648,0
              106.74596,10.920468,0
              106.74615,10.924065,0
              106.746187,10.924804,0
              106.746192,10.924851,0
              106.746276,10.925203,0
              106.746492,10.925618,0
              106.746651,10.925778,0
              106.746929,10.926058,0
              106.747148,10.926283,0
              106.747406,10.926626,0
              106.74746,10.926692,0
              106.747588,10.926804,0
              106.747743,10.926959,0
              106.747927,10.927214,0
              106.747942,10.927419,0
              106.747885,10.927702,0
              106.747259,10.928537,0
              106.746367,10.929646,0
              106.745995,10.929981,0
              106.745761,10.930084,0
              106.745198,10.930231,0
              106.745118,10.930236,0
              106.742933,10.930355,0
              106.741768,10.930386,0
              106.74125,10.93037,0
              106.740339,10.929951,0
              106.740235,10.929755,0
              106.740066,10.927232,0
              106.739946,10.924986,0
              106.739882,10.923197,0
              106.739697,10.919603,0
              106.739352,10.913754,0
              106.739201,10.910804,0
              106.739295,10.909647,0
              106.73891,10.902049,0
              106.738645,10.898021,0
              106.73842,10.894702,0
              106.738566,10.894685,0
              106.740441,10.894567,0
              106.740434,10.894472,0
              106.740698,10.894448,0
              106.740844,10.895418,0
              106.741731,10.895335,0
              106.74195,10.895302,0
              106.743444,10.895164,0
              106.745036,10.895114,0
              106.746792,10.895263,0
              106.747284,10.895297,0
              106.748205,10.895358,0
              106.749887,10.895454,0
              106.750019,10.895432,0
              106.754052,10.893152,0
              106.753937,10.892958,0
              106.753094,10.891775,0
              106.754604,10.890928,0
            </coordinates>
          </LinearRing>
        </outerBoundaryIs>
      </Polygon>
    </Placemark>
    <Placemark>
      <name>KCN Tân Đông Hiệp A</name>
      <styleUrl>#poly-E39E00-1000-255-nodesc</styleUrl>
      <Polygon>
        <outerBoundaryIs>
          <LinearRing>
            <tessellate>1</tessellate>
            <coordinates>
              106.780955,10.904596,0
              106.782283,10.904503,0
              106.782288,10.904539,0
              106.783996,10.904146,0
              106.784411,10.904063,0
              106.78462,10.904005,0
              106.785024,10.903952,0
              106.785087,10.903944,0
              106.785377,10.903281,0
              106.785638,10.903356,0
              106.785802,10.903364,0
              106.785963,10.903333,0
              106.78647,10.903293,0
              106.786575,10.903275,0
              106.786614,10.903239,0
              106.786663,10.902994,0
              106.786697,10.902876,0
              106.786734,10.902827,0
              106.786851,10.90278,0
              106.786976,10.902756,0
              106.787331,10.902731,0
              106.78747,10.903412,0
              106.788464,10.903295,0
              106.788562,10.903949,0
              106.788548,10.904015,0
              106.78863,10.904787,0
              106.788944,10.904747,0
              106.788969,10.90489,0
              106.788982,10.90504,0
              106.788872,10.905061,0
              106.788438,10.905127,0
              106.788606,10.905582,0
              106.789231,10.907483,0
              106.786461,10.908331,0
              106.784602,10.908885,0
              106.783835,10.909127,0
              106.783792,10.9091,0
              106.782988,10.909257,0
              106.78285,10.909267,0
              106.782871,10.909236,0
              106.78265,10.907906,0
              106.782413,10.908001,0
              106.78196,10.908098,0
              106.781954,10.907841,0
              106.781718,10.907944,0
              106.781367,10.908026,0
              106.781194,10.908063,0
              106.78067,10.908154,0
              106.780588,10.907645,0
              106.779485,10.907632,0
              106.779493,10.907143,0
              106.779496,10.906896,0
              106.779484,10.906454,0
              106.779383,10.905992,0
              106.779244,10.905692,0
              106.779822,10.905625,0
              106.780095,10.905651,0
              106.780578,10.905599,0
              106.780608,10.905573,0
              106.780675,10.905482,0
              106.780786,10.905175,0
              106.780889,10.904903,0
              106.780955,10.904596,0
            </coordinates>
          </LinearRing>
        </outerBoundaryIs>
      </Polygon>
    </Placemark>
    <Placemark>
      <name>KCN Tân Đông Hiệp B</name>
      <styleUrl>#poly-E39E00-1000-255-nodesc</styleUrl>
      <Polygon>
        <outerBoundaryIs>
          <LinearRing>
            <tessellate>1</tessellate>
            <coordinates>
              106.786293,10.923946,0
              106.786954,10.924793,0
              106.78968,10.927457,0
              106.790091,10.927715,0
              106.789932,10.928274,0
              106.78982,10.928669,0
              106.789555,10.929266,0
              106.789267,10.929578,0
              106.787215,10.928996,0
              106.786872,10.929009,0
              106.786705,10.929741,0
              106.785926,10.929676,0
              106.785636,10.929597,0
              106.785045,10.93024,0
              106.781733,10.929505,0
              106.781597,10.929891,0
              106.777432,10.929293,0
              106.77695,10.92923,0
              106.777593,10.9254,0
              106.778203,10.921097,0
              106.778457,10.921177,0
              106.780498,10.921696,0
              106.78636,10.923147,0
              106.786293,10.923946,0
            </coordinates>
          </LinearRing>
        </outerBoundaryIs>
      </Polygon>
    </Placemark>
    <Placemark>
      <name>KCN Bình Đường</name>
      <styleUrl>#poly-E39E00-1000-255-nodesc</styleUrl>
      <Polygon>
        <outerBoundaryIs>
          <LinearRing>
            <tessellate>1</tessellate>
            <coordinates>
              106.7504,10.874666,0
              106.750373,10.873607,0
              106.750341,10.872454,0
              106.750317,10.871548,0
              106.750294,10.87071,0
              106.750272,10.869881,0
              106.750245,10.86887,0
              106.75045,10.868972,0
              106.750509,10.868995,0
              106.750592,10.869027,0
              106.750621,10.869038,0
              106.750675,10.869059,0
              106.750732,10.869081,0
              106.750787,10.869102,0
              106.750847,10.869125,0
              106.751257,10.869219,0
              106.751454,10.869094,0
              106.751524,10.869128,0
              106.751783,10.869256,0
              106.751792,10.869262,0
              106.751954,10.869299,0
              106.752082,10.868973,0
              106.752571,10.869265,0
              106.752845,10.868913,0
              106.752849,10.868909,0
              106.753065,10.869048,0
              106.753534,10.869287,0
              106.754336,10.869695,0
              106.754322,10.86972,0
              106.754192,10.869964,0
              106.753975,10.870363,0
              106.753971,10.870371,0
              106.753874,10.870542,0
              106.753797,10.870502,0
              106.753774,10.870538,0
              106.753678,10.870685,0
              106.753638,10.870746,0
              106.753591,10.870721,0
              106.753284,10.871128,0
              106.752261,10.873027,0
              106.752187,10.873183,0
              106.752141,10.87328,0
              106.751987,10.873496,0
              106.751974,10.873513,0
              106.75183,10.873817,0
              106.752281,10.87401,0
              106.752299,10.874005,0
              106.752293,10.874015,0
              106.751891,10.874676,0
              106.751838,10.874773,0
              106.751831,10.874781,0
              106.751718,10.874782,0
              106.751632,10.874782,0
              106.751576,10.874782,0
              106.751067,10.874778,0
              106.750799,10.874769,0
              106.750588,10.874761,0
              106.75059,10.874697,0
              106.750553,10.874695,0
              106.750418,10.874697,0
              106.750401,10.874703,0
              106.7504,10.874666,0
            </coordinates>
          </LinearRing>
        </outerBoundaryIs>
      </Polygon>
    </Placemark>
    <Placemark>
      <name>KCN Rạch Bắp</name>
      <styleUrl>#poly-E39E00-1000-255-nodesc</styleUrl>
      <Polygon>
        <outerBoundaryIs>
          <LinearRing>
            <tessellate>1</tessellate>
            <coordinates>
              106.514242,11.140712,0
              106.514323,11.140393,0
              106.514902,11.138928,0
              106.516303,11.135403,0
              106.516429,11.135134,0
              106.516674,11.134723,0
              106.516925,11.134352,0
              106.517682,11.133251,0
              106.517847,11.133055,0
              106.517974,11.132934,0
              106.519324,11.131932,0
              106.519379,11.131901,0
              106.519511,11.131863,0
              106.520192,11.1321,0
              106.520815,11.132261,0
              106.521352,11.132331,0
              106.521966,11.132181,0
              106.522849,11.132124,0
              106.523854,11.132295,0
              106.524547,11.13245,0
              106.524033,11.134254,0
              106.532832,11.136783,0
              106.533472,11.134792,0
              106.555263,11.141168,0
              106.555488,11.141238,0
              106.554943,11.143146,0
              106.559227,11.144443,0
              106.558614,11.146575,0
              106.557991,11.148708,0
              106.544864,11.144957,0
              106.543569,11.149253,0
              106.529303,11.145034,0
              106.522448,11.143098,0
              106.517198,11.141648,0
              106.514287,11.140847,0
              106.514242,11.140712,0
            </coordinates>
          </LinearRing>
        </outerBoundaryIs>
      </Polygon>
    </Placemark>
    <Placemark>
      <name>KCN Việt Hương 2</name>
      <styleUrl>#poly-E39E00-1000-255-nodesc</styleUrl>
      <Polygon>
        <outerBoundaryIs>
          <LinearRing>
            <tessellate>1</tessellate>
            <coordinates>
              106.54321,11.092898,0
              106.543235,11.092883,0
              106.547088,11.090465,0
              106.54737,11.090806,0
              106.548328,11.091638,0
              106.548501,11.09175,0
              106.54822,11.092193,0
              106.549456,11.092804,0
              106.549705,11.092451,0
              106.551106,11.093191,0
              106.551022,11.093359,0
              106.551323,11.093615,0
              106.551081,11.093761,0
              106.551618,11.094378,0
              106.551836,11.094237,0
              106.551982,11.094144,0
              106.552611,11.094503,0
              106.55258,11.094609,0
              106.553795,11.095363,0
              106.553961,11.095466,0
              106.554354,11.095067,0
              106.55462,11.095252,0
              106.554837,11.094961,0
              106.556531,11.095805,0
              106.556558,11.095813,0
              106.556236,11.096509,0
              106.556212,11.09649,0
              106.555842,11.097285,0
              106.555892,11.09731,0
              106.555739,11.097964,0
              106.555667,11.098347,0
              106.55549,11.099158,0
              106.555175,11.100193,0
              106.554923,11.100224,0
              106.554192,11.100046,0
              106.554091,11.100067,0
              106.554026,11.100247,0
              106.553733,11.100171,0
              106.553218,11.100035,0
              106.552575,11.099878,0
              106.551955,11.099725,0
              106.551663,11.099831,0
              106.548766,11.098962,0
              106.548524,11.09889,0
              106.548225,11.098787,0
              106.548225,11.098788,0
              106.547831,11.098653,0
              106.546267,11.098118,0
              106.543614,11.097342,0
              106.54283,11.097113,0
              106.54129,11.096663,0
              106.53956,11.09619,0
              106.539718,11.095663,0
              106.539845,11.095692,0
              106.539915,11.095481,0
              106.539992,11.095466,0
              106.540025,11.095412,0
              106.539858,11.095289,0
              106.539876,11.095186,0
              106.539913,11.094968,0
              106.538809,11.093676,0
              106.539785,11.093092,0
              106.539786,11.093091,0
              106.539787,11.093091,0
              106.539788,11.09309,0
              106.5413,11.092143,0
              106.541301,11.092142,0
              106.541302,11.092142,0
              106.542318,11.091492,0
              106.542983,11.092564,0
              106.54321,11.092898,0
            </coordinates>
          </LinearRing>
        </outerBoundaryIs>
      </Polygon>
    </Placemark>
    <Placemark>
      <name>KCN Mai Trung</name>
      <styleUrl>#poly-E39E00-1000-255-nodesc</styleUrl>
      <Polygon>
        <outerBoundaryIs>
          <LinearRing>
            <tessellate>1</tessellate>
            <coordinates>
              106.538248,11.101083,0
              106.536768,11.100883,0
              106.536887,11.100417,0
              106.536894,11.10035,0
              106.537113,11.100379,0
              106.537333,11.0998,0
              106.537395,11.099638,0
              106.537631,11.098729,0
              106.53765,11.098644,0
              106.537754,11.098357,0
              106.537902,11.097966,0
              106.537978,11.097731,0
              106.538018,11.097597,0
              106.538164,11.097003,0
              106.538344,11.09629,0
              106.538408,11.095905,0
              106.539272,11.09615,0
              106.539845,11.09631,0
              106.541215,11.096688,0
              106.541852,11.096874,0
              106.542788,11.097147,0
              106.543525,11.097366,0
              106.544133,11.097545,0
              106.544843,11.097755,0
              106.545633,11.097988,0
              106.546344,11.098201,0
              106.546724,11.098323,0
              106.547122,11.098453,0
              106.547897,11.098716,0
              106.548761,11.098995,0
              106.548473,11.101137,0
              106.547835,11.101136,0
              106.54743,11.101131,0
              106.54607,11.101127,0
              106.545492,11.101126,0
              106.544877,11.101123,0
              106.544318,11.101121,0
              106.543647,11.10112,0
              106.542975,11.101126,0
              106.54245,11.101124,0
              106.538683,11.101086,0
              106.538572,11.101085,0
              106.538248,11.101083,0
            </coordinates>
          </LinearRing>
        </outerBoundaryIs>
      </Polygon>
    </Placemark>
    <Placemark>
      <name>KCN Mỹ Phước 1</name>
      <styleUrl>#poly-E39E00-1000-255-nodesc</styleUrl>
      <Polygon>
        <outerBoundaryIs>
          <LinearRing>
            <tessellate>1</tessellate>
            <coordinates>
              106.60267,11.113313,0
              106.602672,11.114816,0
              106.602705,11.114966,0
              106.60274,11.115096,0
              106.602878,11.115531,0
              106.602763,11.115567,0
              106.602782,11.115759,0
              106.603213,11.116883,0
              106.603292,11.117161,0
              106.603283,11.117206,0
              106.603304,11.117261,0
              106.60337,11.117269,0
              106.60374,11.117187,0
              106.603999,11.118272,0
              106.604074,11.118481,0
              106.604168,11.118736,0
              106.604325,11.11881,0
              106.604623,11.118761,0
              106.604734,11.118829,0
              106.604776,11.118842,0
              106.604776,11.119014,0
              106.605105,11.119622,0
              106.605474,11.120182,0
              106.605696,11.120523,0
              106.606081,11.121153,0
              106.606987,11.122038,0
              106.607382,11.12241,0
              106.607493,11.12245,0
              106.608635,11.123116,0
              106.608992,11.123369,0
              106.609669,11.123592,0
              106.609836,11.12356,0
              106.610474,11.123844,0
              106.610939,11.124065,0
              106.611253,11.124173,0
              106.611266,11.124066,0
              106.611547,11.124141,0
              106.611777,11.124236,0
              106.611841,11.12422,0
              106.611953,11.124244,0
              106.611904,11.124434,0
              106.612007,11.124481,0
              106.611982,11.124572,0
              106.611864,11.124884,0
              106.612074,11.124973,0
              106.611863,11.125711,0
              106.611147,11.127902,0
              106.610982,11.128162,0
              106.610802,11.128321,0
              106.610504,11.128584,0
              106.609956,11.129029,0
              106.609748,11.12918,0
              106.609658,11.129237,0
              106.608765,11.129957,0
              106.607691,11.130815,0
              106.607333,11.131113,0
              106.606301,11.131949,0
              106.604627,11.133313,0
              106.60361,11.134186,0
              106.602848,11.134905,0
              106.60276,11.13499,0
              106.602473,11.135271,0
              106.602294,11.135543,0
              106.60223,11.13582,0
              106.602131,11.136294,0
              106.601944,11.136281,0
              106.601371,11.136184,0
              106.60127,11.136182,0
              106.601161,11.136207,0
              106.600838,11.136338,0
              106.600674,11.13648,0
              106.600574,11.136547,0
              106.600434,11.136612,0
              106.600299,11.136706,0
              106.600326,11.136732,0
              106.600234,11.137098,0
              106.59994,11.137571,0
              106.599717,11.137867,0
              106.599187,11.138267,0
              106.598386,11.138964,0
              106.598121,11.139223,0
              106.597885,11.139236,0
              106.597639,11.139274,0
              106.597559,11.139279,0
              106.597239,11.139593,0
              106.59686,11.139996,0
              106.597109,11.140237,0
              106.596525,11.140922,0
              106.596477,11.141008,0
              106.59633,11.141155,0
              106.596052,11.141529,0
              106.595811,11.141956,0
              106.595445,11.142605,0
              106.595073,11.143258,0
              106.594607,11.143792,0
              106.594412,11.143992,0
              106.594369,11.144092,0
              106.594026,11.144814,0
              106.593709,11.144614,0
              106.593384,11.144201,0
              106.592941,11.143545,0
              106.592433,11.142823,0
              106.592044,11.142261,0
              106.591734,11.14181,0
              106.591613,11.141654,0
              106.59149,11.141452,0
              106.591376,11.14119,0
              106.591138,11.140343,0
              106.590782,11.13892,0
              106.590746,11.138576,0
              106.590661,11.138575,0
              106.590415,11.138577,0
              106.590308,11.137863,0
              106.589961,11.137011,0
              106.589919,11.137028,0
              106.58976,11.136165,0
              106.589894,11.13552,0
              106.589892,11.135419,0
              106.589773,11.135349,0
              106.589702,11.134341,0
              106.58964,11.134346,0
              106.58952,11.133433,0
              106.589463,11.133155,0
              106.589391,11.133,0
              106.589355,11.132536,0
              106.589455,11.132536,0
              106.589398,11.131941,0
              106.589286,11.131486,0
              106.589271,11.131353,0
              106.589033,11.131311,0
              106.589015,11.131224,0
              106.589214,11.130988,0
              106.589112,11.130862,0
              106.588567,11.130488,0
              106.588259,11.130114,0
              106.588063,11.129957,0
              106.587876,11.12991,0
              106.587646,11.129728,0
              106.586926,11.129228,0
              106.586783,11.129059,0
              106.586545,11.128844,0
              106.586696,11.128659,0
              106.5866,11.128315,0
              106.586524,11.128329,0
              106.586391,11.128074,0
              106.586565,11.127868,0
              106.586896,11.127879,0
              106.587049,11.127943,0
              106.587108,11.127883,0
              106.587491,11.127973,0
              106.5875,11.127378,0
              106.587652,11.127125,0
              106.587709,11.127037,0
              106.587334,11.126651,0
              106.587379,11.126597,0
              106.586918,11.12615,0
              106.586501,11.125821,0
              106.586518,11.125564,0
              106.586655,11.125447,0
              106.587286,11.125517,0
              106.587364,11.125246,0
              106.586702,11.12489,0
              106.586796,11.124673,0
              106.586959,11.1247,0
              106.586992,11.124684,0
              106.587084,11.124373,0
              106.587107,11.124357,0
              106.587091,11.124295,0
              106.587141,11.124212,0
              106.587972,11.124333,0
              106.588116,11.123831,0
              106.587475,11.123561,0
              106.587642,11.123261,0
              106.587585,11.123146,0
              106.587708,11.122914,0
              106.587687,11.122877,0
              106.588273,11.122697,0
              106.588264,11.122342,0
              106.588269,11.122314,0
              106.588408,11.122297,0
              106.588438,11.122175,0
              106.58872,11.122195,0
              106.588785,11.122129,0
              106.588785,11.121867,0
              106.588667,11.121843,0
              106.588645,11.121515,0
              106.588606,11.121498,0
              106.588682,11.120839,0
              106.588795,11.120859,0
              106.588879,11.120165,0
              106.588733,11.120128,0
              106.588836,11.119729,0
              106.588989,11.119743,0
              106.589055,11.119543,0
              106.588655,11.119175,0
              106.588823,11.118586,0
              106.589165,11.118624,0
              106.589241,11.118158,0
              106.588545,11.118028,0
              106.587386,11.11762,0
              106.586651,11.117341,0
              106.586855,11.116595,0
              106.586935,11.116615,0
              106.587147,11.116282,0
              106.587514,11.115685,0
              106.587745,11.115412,0
              106.587855,11.115297,0
              106.588644,11.114205,0
              106.58898,11.113623,0
              106.588805,11.113196,0
              106.588588,11.112808,0
              106.588545,11.112565,0
              106.588198,11.112047,0
              106.588026,11.111919,0
              106.587928,11.111857,0
              106.58799,11.111769,0
              106.588109,11.111727,0
              106.588899,11.11155,0
              106.589321,11.111348,0
              106.589578,11.111269,0
              106.58974,11.111135,0
              106.589818,11.110956,0
              106.590048,11.110661,0
              106.590269,11.110261,0
              106.590633,11.110462,0
              106.590735,11.110494,0
              106.591179,11.110744,0
              106.591738,11.111227,0
              106.592406,11.111674,0
              106.592647,11.111722,0
              106.592722,11.111753,0
              106.592755,11.111882,0
              106.592833,11.111918,0
              106.592915,11.112016,0
              106.593028,11.112147,0
              106.59323,11.112262,0
              106.593356,11.112473,0
              106.593223,11.112921,0
              106.593379,11.113025,0
              106.593621,11.113119,0
              106.593667,11.113035,0
              106.593668,11.112964,0
              106.593605,11.112946,0
              106.593656,11.112767,0
              106.59434,11.113008,0
              106.595459,11.11342,0
              106.596008,11.113447,0
              106.596559,11.113441,0
              106.596566,11.113549,0
              106.596805,11.113549,0
              106.5968,11.113403,0
              106.597128,11.113371,0
              106.597659,11.113316,0
              106.598039,11.113281,0
              106.598411,11.11321,0
              106.598813,11.11316,0
              106.598996,11.113158,0
              106.600225,11.113174,0
              106.601393,11.113222,0
              106.602117,11.113285,0
              106.60267,11.113313,0
            </coordinates>
          </LinearRing>
        </outerBoundaryIs>
      </Polygon>
    </Placemark>
    <Placemark>
      <name>KCN Mỹ Phước 2</name>
      <styleUrl>#poly-E39E00-1000-255-nodesc</styleUrl>
      <Polygon>
        <outerBoundaryIs>
          <LinearRing>
            <tessellate>1</tessellate>
            <coordinates>
              106.613805,11.127738,0
              106.617238,11.127942,0
              106.619089,11.128028,0
              106.623646,11.127962,0
              106.630959,11.127961,0
              106.633116,11.127957,0
              106.633113,11.129633,0
              106.633133,11.134255,0
              106.631911,11.13427,0
              106.629565,11.134097,0
              106.628067,11.133995,0
              106.627683,11.138618,0
              106.627183,11.145059,0
              106.626985,11.147686,0
              106.62685,11.147815,0
              106.626018,11.148228,0
              106.624223,11.14922,0
              106.623878,11.149401,0
              106.623474,11.149653,0
              106.622211,11.15068,0
              106.621864,11.150953,0
              106.621814,11.150233,0
              106.621691,11.148456,0
              106.617891,11.148167,0
              106.614802,11.147932,0
              106.610322,11.147667,0
              106.61061,11.143459,0
              106.610689,11.141819,0
              106.610814,11.140277,0
              106.610881,11.139497,0
              106.611214,11.138889,0
              106.612983,11.136174,0
              106.613328,11.135642,0
              106.613805,11.127738,0
            </coordinates>
          </LinearRing>
        </outerBoundaryIs>
      </Polygon>
    </Placemark>
    <Placemark>
      <name>KCN Mỹ Phước 3</name>
      <styleUrl>#poly-E39E00-1000-255-nodesc</styleUrl>
      <Polygon>
        <outerBoundaryIs>
          <LinearRing>
            <tessellate>1</tessellate>
            <coordinates>
              106.614072,11.123398,0
              106.614345,11.122721,0
              106.614834,11.120858,0
              106.615237,11.119453,0
              106.615727,11.117762,0
              106.616333,11.11607,0
              106.616736,11.115009,0
              106.615916,11.114727,0
              106.616406,11.11341,0
              106.616627,11.112843,0
              106.616832,11.112347,0
              106.616832,11.112345,0
              106.616833,11.112344,0
              106.616833,11.112342,0
              106.61722,11.111346,0
              106.617572,11.1106,0
              106.620966,11.112107,0
              106.623915,11.10746,0
              106.625588,11.103331,0
              106.624108,11.102933,0
              106.624971,11.099665,0
              106.624032,11.099495,0
              106.624056,11.099321,0
              106.624056,11.09932,0
              106.624056,11.099319,0
              106.624267,11.097659,0
              106.624284,11.097528,0
              106.63277,11.09783,0
              106.632985,11.090066,0
              106.626343,11.090008,0
              106.625963,11.088548,0
              106.62501,11.08855,0
              106.625022,11.087032,0
              106.625022,11.087029,0
              106.625022,11.087026,0
              106.625022,11.087022,0
              106.625006,11.086487,0
              106.632949,11.08647,0
              106.632961,11.083225,0
              106.632963,11.082572,0
              106.632963,11.082527,0
              106.632964,11.082367,0
              106.632964,11.082115,0
              106.632964,11.081983,0
              106.632964,11.081713,0
              106.632964,11.081091,0
              106.632964,11.080999,0
              106.632964,11.08095,0
              106.632964,11.080814,0
              106.632964,11.080686,0
              106.632965,11.080108,0
              106.632964,11.07996,0
              106.633116,11.080024,0
              106.633662,11.08025,0
              106.633664,11.080295,0
              106.633636,11.082676,0
              106.633724,11.082716,0
              106.638005,11.08476,0
              106.638248,11.084849,0
              106.638627,11.084989,0
              106.639147,11.08511,0
              106.639147,11.085178,0
              106.64018,11.0854,0
              106.640793,11.083929,0
              106.641448,11.084289,0
              106.640489,11.086111,0
              106.648864,11.090578,0
              106.64976,11.091102,0
              106.650455,11.091295,0
              106.650574,11.091328,0
              106.651038,11.091456,0
              106.65134,11.091555,0
              106.651525,11.091615,0
              106.651547,11.091622,0
              106.651893,11.091735,0
              106.652323,11.091956,0
              106.652399,11.092013,0
              106.652057,11.093312,0
              106.652316,11.093358,0
              106.652545,11.093421,0
              106.652823,11.093497,0
              106.653047,11.093559,0
              106.653683,11.093746,0
              106.654075,11.093835,0
              106.654292,11.093884,0
              106.654523,11.093936,0
              106.654963,11.094034,0
              106.65562,11.094245,0
              106.655974,11.094358,0
              106.656135,11.094,0
              106.65626,11.093525,0
              106.656283,11.093528,0
              106.656166,11.093962,0
              106.65597,11.094381,0
              106.655883,11.094943,0
              106.65589,11.094974,0
              106.657038,11.096546,0
              106.656862,11.097083,0
              106.656849,11.097196,0
              106.656736,11.097283,0
              106.656535,11.097933,0
              106.656422,11.098295,0
              106.656334,11.098727,0
              106.656309,11.098789,0
              106.656266,11.099276,0
              106.656236,11.099788,0
              106.656174,11.100407,0
              106.657527,11.10046,0
              106.658387,11.100539,0
              106.658418,11.100514,0
              106.658418,11.100577,0
              106.65835,11.100914,0
              106.658249,11.100977,0
              106.658081,11.102538,0
              106.658057,11.102625,0
              106.657614,11.102614,0
              106.657488,11.102602,0
              106.657374,11.102602,0
              106.657425,11.103114,0
              106.657503,11.103938,0
              106.657574,11.104737,0
              106.657639,11.10553,0
              106.657627,11.105562,0
              106.657526,11.105593,0
              106.657494,11.105593,0
              106.657488,11.105724,0
              106.657489,11.10588,0
              106.657489,11.10603,0
              106.657496,11.106136,0
              106.657515,11.106323,0
              106.657586,11.106998,0
              106.657638,11.107547,0
              106.657676,11.107622,0
              106.657747,11.108371,0
              106.656799,11.108523,0
              106.6563,11.108599,0
              106.655826,11.108662,0
              106.655858,11.109087,0
              106.655884,11.109437,0
              106.65593,11.109943,0
              106.655981,11.110504,0
              106.65604,11.111172,0
              106.656066,11.111478,0
              106.656079,11.111653,0
              106.656098,11.111772,0
              106.656117,11.111947,0
              106.656131,11.11224,0
              106.656158,11.112958,0
              106.656158,11.113046,0
              106.65621,11.11357,0
              106.656274,11.114288,0
              106.656281,11.114482,0
              106.65632,11.1148,0
              106.656461,11.115886,0
              106.656487,11.116155,0
              106.656494,11.116239,0
              106.656494,11.11628,0
              106.656456,11.116305,0
              106.656501,11.116698,0
              106.656598,11.117628,0
              106.656766,11.11897,0
              106.656798,11.119339,0
              106.656817,11.119482,0
              106.656882,11.120088,0
              106.657006,11.12178,0
              106.657117,11.123297,0
              106.657092,11.123385,0
              106.656333,11.123368,0
              106.656245,11.123649,0
              106.656038,11.124274,0
              106.656038,11.124361,0
              106.655874,11.124886,0
              106.655555,11.125861,0
              106.655002,11.127536,0
              106.65463,11.128648,0
              106.654411,11.129523,0
              106.654154,11.130479,0
              106.654116,11.130641,0
              106.654445,11.130596,0
              106.654788,11.131458,0
              106.654928,11.131464,0
              106.654954,11.13157,0
              106.655035,11.131776,0
              106.655107,11.132063,0
              106.655318,11.132722,0
              106.656394,11.132623,0
              106.657046,11.131912,0
              106.65931,11.131776,0
              106.66284,11.131375,0
              106.662221,11.138238,0
              106.66142,11.144378,0
              106.655342,11.144417,0
              106.641236,11.144172,0
              106.638757,11.14453,0
              106.632707,11.144501,0
              106.632693,11.142574,0
              106.62763,11.142511,0
              106.627755,11.139724,0
              106.627911,11.137106,0
              106.628203,11.134115,0
              106.633227,11.134411,0
              106.633269,11.129078,0
              106.633831,11.127804,0
              106.633923,11.126921,0
              106.633752,11.12661,0
              106.633316,11.126258,0
              106.632858,11.126119,0
              106.632349,11.126147,0
              106.631068,11.126232,0
              106.630259,11.126279,0
              106.627966,11.126788,0
              106.626356,11.126591,0
              106.625147,11.126399,0
              106.623075,11.127185,0
              106.621831,11.127637,0
              106.621566,11.127707,0
              106.621021,11.127651,0
              106.620092,11.127766,0
              106.619662,11.127754,0
              106.619409,11.127624,0
              106.619352,11.127511,0
              106.619263,11.127162,0
              106.619249,11.126912,0
              106.619103,11.126744,0
              106.618876,11.126619,0
              106.618705,11.126526,0
              106.618515,11.126333,0
              106.61835,11.12609,0
              106.618254,11.125859,0
              106.618222,11.125647,0
              106.618172,11.125422,0
              106.617393,11.124943,0
              106.617006,11.124612,0
              106.616532,11.124457,0
              106.616158,11.124333,0
              106.615848,11.124284,0
              106.615633,11.124178,0
              106.61526,11.123842,0
              106.614766,11.123656,0
              106.614304,11.123475,0
              106.614072,11.123398,0
            </coordinates>
          </LinearRing>
        </outerBoundaryIs>
        <innerBoundaryIs>
          <LinearRing>
            <tessellate>1</tessellate>
            <coordinates>
              106.632981,11.080107,0
              106.632965,11.080108,0
              106.632965,11.080037,0
              106.632981,11.080107,0
            </coordinates>
          </LinearRing>
        </innerBoundaryIs>
      </Polygon>
    </Placemark>
    <Placemark>
      <name>KCN Phú Gia</name>
      <styleUrl>#poly-E39E00-1000-255-nodesc</styleUrl>
      <Polygon>
        <outerBoundaryIs>
          <LinearRing>
            <tessellate>1</tessellate>
            <coordinates>
              106.672074,11.099228,0
              106.673572,11.09296,0
              106.683371,11.095165,0
              106.681998,11.101412,0
              106.672074,11.099228,0
            </coordinates>
          </LinearRing>
        </outerBoundaryIs>
      </Polygon>
    </Placemark>
    <Placemark>
      <name>KCN Đồng An 2</name>
      <styleUrl>#poly-E39E00-1000-255-nodesc</styleUrl>
      <Polygon>
        <outerBoundaryIs>
          <LinearRing>
            <tessellate>1</tessellate>
            <coordinates>
              106.669931,11.098983,0
              106.672677,11.099596,0
              106.679168,11.101055,0
              106.68309,11.101923,0
              106.685442,11.102459,0
              106.685229,11.103335,0
              106.685307,11.103369,0
              106.685171,11.103721,0
              106.685407,11.103904,0
              106.685094,11.104307,0
              106.684934,11.104727,0
              106.684621,11.105861,0
              106.68448,11.106528,0
              106.684079,11.107906,0
              106.684049,11.107901,0
              106.683781,11.108515,0
              106.683605,11.108395,0
              106.683478,11.108305,0
              106.683006,11.108249,0
              106.682499,11.108169,0
              106.682349,11.108077,0
              106.682286,11.108061,0
              106.681856,11.108077,0
              106.680831,11.108017,0
              106.67969,11.108025,0
              106.678322,11.108138,0
              106.67786,11.108237,0
              106.677195,11.108272,0
              106.676553,11.108369,0
              106.676535,11.108596,0
              106.676541,11.108857,0
              106.676508,11.108932,0
              106.676446,11.108976,0
              106.675464,11.109127,0
              106.675476,11.109362,0
              106.675451,11.109406,0
              106.675402,11.109407,0
              106.674663,11.109504,0
              106.673838,11.109596,0
              106.673096,11.109716,0
              106.673074,11.109739,0
              106.673037,11.109773,0
              106.672911,11.109819,0
              106.671956,11.10995,0
              106.671892,11.109657,0
              106.671206,11.109788,0
              106.671159,11.109776,0
              106.671125,11.109729,0
              106.671096,11.109571,0
              106.671055,11.109488,0
              106.671043,11.109473,0
              106.670363,11.109565,0
              106.670344,11.109515,0
              106.670287,11.109023,0
              106.670265,11.108989,0
              106.670248,11.108982,0
              106.670248,11.108958,0
              106.669958,11.108991,0
              106.66964,11.10903,0
              106.669624,11.109016,0
              106.6696,11.108945,0
              106.669564,11.108662,0
              106.667821,11.108912,0
              106.667704,11.108759,0
              106.669931,11.098983,0
            </coordinates>
          </LinearRing>
        </outerBoundaryIs>
      </Polygon>
    </Placemark>
    <Placemark>
      <name>KCN Đại Đăng</name>
      <styleUrl>#poly-E39E00-1000-255-nodesc</styleUrl>
      <Polygon>
        <outerBoundaryIs>
          <LinearRing>
            <tessellate>1</tessellate>
            <coordinates>
              106.687011,11.016655,0
              106.686613,11.015098,0
              106.685561,11.011111,0
              106.684084,11.005599,0
              106.683414,11.003109,0
              106.685968,11.00484,0
              106.685985,11.004883,0
              106.686037,11.004963,0
              106.686265,11.005196,0
              106.68648,11.005442,0
              106.686565,11.00545,0
              106.686578,11.005554,0
              106.686642,11.005562,0
              106.686732,11.005655,0
              106.686828,11.005663,0
              106.686905,11.005763,0
              106.68697,11.005788,0
              106.687282,11.0061,0
              106.687238,11.006165,0
              106.687411,11.006169,0
              106.687897,11.005805,0
              106.689091,11.005187,0
              106.68934,11.005439,0
              106.689587,11.005516,0
              106.690664,11.0057,0
              106.69087,11.00551,0
              106.691382,11.006099,0
              106.691665,11.00646,0
              106.691913,11.006789,0
              106.691699,11.007368,0
              106.691614,11.007568,0
              106.691554,11.007703,0
              106.691544,11.007736,0
              106.691484,11.007871,0
              106.691418,11.008106,0
              106.691368,11.008368,0
              106.69133,11.008584,0
              106.691293,11.008694,0
              106.691211,11.008844,0
              106.691126,11.009028,0
              106.691075,11.00916,0
              106.69101,11.009266,0
              106.69094,11.009398,0
              106.690868,11.009526,0
              106.690605,11.009868,0
              106.690547,11.009972,0
              106.690529,11.010076,0
              106.690378,11.010391,0
              106.690306,11.010552,0
              106.690259,11.010672,0
              106.69018,11.011013,0
              106.690148,11.011131,0
              106.689943,11.011238,0
              106.689937,11.011313,0
              106.689892,11.011491,0
              106.689924,11.011632,0
              106.689934,11.011757,0
              106.689903,11.012076,0
              106.69024,11.012216,0
              106.690268,11.012257,0
              106.690294,11.012297,0
              106.690303,11.012382,0
              106.690319,11.012497,0
              106.690339,11.0126,0
              106.690345,11.012612,0
              106.690409,11.012929,0
              106.690454,11.013165,0
              106.690449,11.013663,0
              106.690413,11.013695,0
              106.69042,11.013868,0
              106.690403,11.01399,0
              106.690336,11.014115,0
              106.690298,11.014223,0
              106.690231,11.014226,0
              106.690214,11.014418,0
              106.690221,11.0147,0
              106.690223,11.014739,0
              106.690227,11.015114,0
              106.690224,11.015148,0
              106.690219,11.015565,0
              106.690255,11.015914,0
              106.690297,11.016324,0
              106.690291,11.016487,0
              106.690234,11.016565,0
              106.689449,11.016575,0
              106.689144,11.016574,0
              106.689119,11.016567,0
              106.688881,11.016593,0
              106.688463,11.016619,0
              106.688112,11.016639,0
              106.687674,11.016649,0
              106.687655,11.016659,0
              106.687236,11.01665,0
              106.687011,11.016655,0
            </coordinates>
          </LinearRing>
        </outerBoundaryIs>
      </Polygon>
    </Placemark>
    <Placemark>
      <name>KCN Sóng Thần 3</name>
      <styleUrl>#poly-E39E00-1000-255-nodesc</styleUrl>
      <Polygon>
        <outerBoundaryIs>
          <LinearRing>
            <tessellate>1</tessellate>
            <coordinates>
              106.689667,11.025484,0
              106.693575,11.024456,0
              106.697934,11.02327,0
              106.698005,11.02363,0
              106.700089,11.032605,0
              106.702221,11.038917,0
              106.6981,11.041834,0
              106.695636,11.043513,0
              106.694902,11.042444,0
              106.693433,11.040352,0
              106.69296,11.038492,0
              106.690709,11.030064,0
              106.689667,11.025484,0
            </coordinates>
          </LinearRing>
        </outerBoundaryIs>
      </Polygon>
    </Placemark>
    <Placemark>
      <name>KCN Kim Huy</name>
      <styleUrl>#poly-E39E00-1000-255-nodesc</styleUrl>
      <Polygon>
        <outerBoundaryIs>
          <LinearRing>
            <tessellate>1</tessellate>
            <coordinates>
              106.70538,11.042417,0
              106.707385,11.045043,0
              106.710298,11.049275,0
              106.703311,11.054157,0
              106.698289,11.047345,0
              106.702269,11.044602,0
              106.70538,11.042417,0
            </coordinates>
          </LinearRing>
        </outerBoundaryIs>
      </Polygon>
    </Placemark>
    <Placemark>
      <name>KCN Việt Nam Singapore 2</name>
      <styleUrl>#poly-E39E00-1000-255-nodesc</styleUrl>
      <Polygon>
        <outerBoundaryIs>
          <LinearRing>
            <tessellate>1</tessellate>
            <coordinates>
              106.668343,11.098449,0
              106.669137,11.095613,0
              106.674395,11.072681,0
              106.676337,11.073193,0
              106.685791,11.075554,0
              106.687802,11.076163,0
              106.68599,11.084742,0
              106.685113,11.088426,0
              106.686985,11.088822,0
              106.687338,11.088992,0
              106.688249,11.089524,0
              106.68804,11.090298,0
              106.687928,11.090563,0
              106.688068,11.090654,0
              106.688998,11.091031,0
              106.689541,11.09123,0
              106.690222,11.091524,0
              106.690174,11.09162,0
              106.689924,11.092116,0
              106.687986,11.093999,0
              106.687593,11.095214,0
              106.687991,11.095392,0
              106.68773,11.096089,0
              106.685385,11.095555,0
              106.673424,11.092742,0
              106.671848,11.099297,0
              106.670996,11.099099,0
              106.668343,11.098449,0
            </coordinates>
          </LinearRing>
        </outerBoundaryIs>
      </Polygon>
    </Placemark>
    <Placemark>
      <name>KCN Nam Tân Uyên</name>
      <styleUrl>#poly-E39E00-1000-255-nodesc</styleUrl>
      <Polygon>
        <outerBoundaryIs>
          <LinearRing>
            <tessellate>1</tessellate>
            <coordinates>
              106.742717,11.050966,0
              106.742699,11.050852,0
              106.752624,11.050765,0
              106.756916,11.050905,0
              106.759205,11.051581,0
              106.765071,11.053476,0
              106.765571,11.053862,0
              106.767216,11.05646,0
              106.767216,11.059338,0
              106.767145,11.068359,0
              106.765535,11.069254,0
              106.751962,11.069403,0
              106.749763,11.067947,0
              106.747277,11.064542,0
              106.747223,11.062453,0
              106.742985,11.062541,0
              106.742717,11.050966,0
            </coordinates>
          </LinearRing>
        </outerBoundaryIs>
      </Polygon>
    </Placemark>
    <Placemark>
      <name>KCN Đất Cuốc</name>
      <styleUrl>#poly-E39E00-1000-255-nodesc</styleUrl>
      <Polygon>
        <outerBoundaryIs>
          <LinearRing>
            <tessellate>1</tessellate>
            <coordinates>
              106.831474,11.094924,0
              106.83159,11.094923,0
              106.831854,11.094843,0
              106.831982,11.094879,0
              106.832107,11.094935,0
              106.8332,11.09535,0
              106.833775,11.095483,0
              106.833802,11.095489,0
              106.833889,11.095429,0
              106.833946,11.095038,0
              106.834007,11.094932,0
              106.834106,11.094877,0
              106.834193,11.09486,0
              106.834287,11.094879,0
              106.834394,11.094924,0
              106.834427,11.094921,0
              106.834534,11.094966,0
              106.834636,11.094982,0
              106.834786,11.095015,0
              106.83496,11.095048,0
              106.835142,11.095146,0
              106.835225,11.09521,0
              106.835548,11.095391,0
              106.835609,11.09542,0
              106.836102,11.095553,0
              106.836328,11.095598,0
              106.836543,11.095628,0
              106.836853,11.095746,0
              106.836965,11.095934,0
              106.836982,11.096035,0
              106.836929,11.096121,0
              106.836827,11.096239,0
              106.83677,11.096324,0
              106.836772,11.096357,0
              106.837733,11.096917,0
              106.837863,11.097014,0
              106.837946,11.097121,0
              106.837999,11.097253,0
              106.838034,11.097453,0
              106.838027,11.09757,0
              106.837996,11.097733,0
              106.837955,11.09785,0
              106.837855,11.098217,0
              106.837603,11.099081,0
              106.837589,11.099187,0
              106.83769,11.099648,0
              106.837723,11.099762,0
              106.837762,11.099833,0
              106.837808,11.099897,0
              106.838274,11.10036,0
              106.838491,11.100575,0
              106.838583,11.100674,0
              106.838622,11.100827,0
              106.838913,11.101766,0
              106.839196,11.102711,0
              106.838843,11.102963,0
              106.838761,11.103034,0
              106.838757,11.103171,0
              106.838786,11.103302,0
              106.838834,11.103447,0
              106.838878,11.10354,0
              106.838932,11.103638,0
              106.83899,11.103803,0
              106.838997,11.103841,0
              106.839022,11.103879,0
              106.839061,11.103922,0
              106.839133,11.103998,0
              106.839325,11.104204,0
              106.839378,11.104292,0
              106.839429,11.10439,0
              106.839629,11.1047,0
              106.839729,11.104879,0
              106.839851,11.105074,0
              106.839938,11.105189,0
              106.840088,11.105336,0
              106.840176,11.105398,0
              106.840229,11.105433,0
              106.840321,11.105476,0
              106.840397,11.105503,0
              106.840733,11.105566,0
              106.841479,11.105655,0
              106.841906,11.105698,0
              106.84207,11.105701,0
              106.84217,11.105687,0
              106.842312,11.105639,0
              106.842557,11.105533,0
              106.842643,11.105471,0
              106.842842,11.105413,0
              106.842967,11.105347,0
              106.843038,11.105276,0
              106.843116,11.105234,0
              106.843194,11.105227,0
              106.843258,11.105241,0
              106.843354,11.105309,0
              106.843558,11.105486,0
              106.843786,11.105628,0
              106.843897,11.105819,0
              106.84393,11.105955,0
              106.844012,11.106213,0
              106.84408,11.106305,0
              106.844319,11.10657,0
              106.844394,11.106649,0
              106.844473,11.106775,0
              106.844569,11.106989,0
              106.844606,11.107151,0
              106.8446,11.107366,0
              106.844536,11.107503,0
              106.844473,11.107755,0
              106.844399,11.108124,0
              106.844382,11.108508,0
              106.844397,11.108781,0
              106.844355,11.10917,0
              106.84432,11.109255,0
              106.844274,11.109462,0
              106.844026,11.1098,0
              106.843957,11.109881,0
              106.843831,11.109975,0
              106.843731,11.110026,0
              106.843522,11.110027,0
              106.843265,11.109956,0
              106.843154,11.109905,0
              106.842422,11.109678,0
              106.842062,11.109604,0
              106.841923,11.109587,0
              106.841041,11.109611,0
              106.840949,11.109618,0
              106.840004,11.109966,0
              106.839283,11.110236,0
              106.838367,11.107957,0
              106.837804,11.107041,0
              106.837793,11.107023,0
              106.837146,11.107196,0
              106.837119,11.107194,0
              106.836214,11.106781,0
              106.836251,11.106835,0
              106.835349,11.107986,0
              106.834319,11.104588,0
              106.833827,11.102982,0
              106.831901,11.102999,0
              106.829355,11.103028,0
              106.829507,11.101149,0
              106.828651,11.101171,0
              106.828623,11.100855,0
              106.832982,11.100332,0
              106.833047,11.100309,0
              106.832745,11.099327,0
              106.832216,11.097533,0
              106.831474,11.094924,0
            </coordinates>
          </LinearRing>
        </outerBoundaryIs>
      </Polygon>
    </Placemark>
    <Placemark>
      <name>KCN Dệt May Bình An</name>
      <styleUrl>#poly-E39E00-1000-255-nodesc</styleUrl>
      <MultiGeometry>
        <Polygon>
          <outerBoundaryIs>
            <LinearRing>
              <tessellate>1</tessellate>
              <coordinates>
                106.820445,10.897455,0
                106.820489,10.897497,0
                106.820255,10.897668,0
                106.819895,10.897698,0
                106.819909,10.897812,0
                106.819819,10.897823,0
                106.819721,10.897829,0
                106.819618,10.897824,0
                106.819348,10.897823,0
                106.818909,10.897848,0
                106.818084,10.897918,0
                106.817787,10.898227,0
                106.817712,10.898434,0
                106.817594,10.898694,0
                106.817519,10.89869,0
                106.816953,10.898597,0
                106.815482,10.898092,0
                106.815165,10.897993,0
                106.815012,10.897914,0
                106.814976,10.897762,0
                106.815005,10.897434,0
                106.815048,10.896878,0
                106.81521,10.896848,0
                106.816589,10.89688,0
                106.816727,10.896884,0
                106.816753,10.895059,0
                106.816763,10.895034,0
                106.816774,10.895018,0
                106.816787,10.895003,0
                106.816814,10.894985,0
                106.816827,10.894978,0
                106.816842,10.894975,0
                106.818381,10.895051,0
                106.818389,10.895056,0
                106.818396,10.895063,0
                106.818403,10.895076,0
                106.818407,10.895097,0
                106.818356,10.89693,0
                106.818591,10.896933,0
                106.818636,10.896937,0
                106.818656,10.896608,0
                106.818699,10.895184,0
                106.818706,10.895156,0
                106.818721,10.895132,0
                106.818743,10.895112,0
                106.818792,10.89509,0
                106.819727,10.895135,0
                106.819772,10.895148,0
                106.819755,10.895323,0
                106.820051,10.895089,0
                106.820151,10.895037,0
                106.821021,10.894381,0
                106.821476,10.895011,0
                106.82149,10.895026,0
                106.821568,10.895131,0
                106.821732,10.895356,0
                106.82202,10.895125,0
                106.822548,10.895777,0
                106.822368,10.895922,0
                106.822342,10.895934,0
                106.822315,10.895945,0
                106.822232,10.896002,0
                106.822226,10.895996,0
                106.821843,10.896288,0
                106.821993,10.896528,0
                106.82201,10.896552,0
                106.822016,10.896588,0
                106.822003,10.896617,0
                106.821972,10.896645,0
                106.821068,10.897143,0
                106.820863,10.897253,0
                106.820445,10.897455,0
              </coordinates>
            </LinearRing>
          </outerBoundaryIs>
        </Polygon>
        <Polygon>
          <outerBoundaryIs>
            <LinearRing>
              <tessellate>1</tessellate>
              <coordinates>
                106.820653,10.893234,0
                106.820786,10.893426,0
                106.82077,10.89345,0
                106.820878,10.893581,0
                106.820916,10.893631,0
                106.820881,10.893657,0
                106.821167,10.894022,0
                106.820967,10.894204,0
                106.820909,10.894254,0
                106.820367,10.894677,0
                106.820063,10.894874,0
                106.820038,10.894887,0
                106.820008,10.894902,0
                106.819971,10.894912,0
                106.819933,10.894923,0
                106.819871,10.894933,0
                106.819799,10.894935,0
                106.818779,10.894878,0
                106.818745,10.894873,0
                106.818719,10.894858,0
                106.818708,10.894843,0
                106.818703,10.894824,0
                106.818717,10.894176,0
                106.818671,10.894175,0
                106.818591,10.89417,0
                106.818562,10.894169,0
                106.818485,10.894171,0
                106.818439,10.89417,0
                106.818416,10.89483,0
                106.818414,10.894871,0
                106.818408,10.894885,0
                106.818397,10.894894,0
                106.816804,10.894803,0
                106.816766,10.894775,0
                106.816756,10.894737,0
                106.816757,10.89469,0
                106.816783,10.893669,0
                106.816785,10.893595,0
                106.816786,10.89356,0
                106.816794,10.893207,0
                106.816835,10.891978,0
                106.817444,10.892008,0
                106.817969,10.89201,0
                106.818288,10.89201,0
                106.818701,10.892008,0
                106.818825,10.891873,0
                106.819238,10.891369,0
                106.819633,10.891816,0
                106.819776,10.892015,0
                106.82025,10.892688,0
                106.820265,10.892686,0
                106.820653,10.893234,0
              </coordinates>
            </LinearRing>
          </outerBoundaryIs>
        </Polygon>
        <Polygon>
          <outerBoundaryIs>
            <LinearRing>
              <tessellate>1</tessellate>
              <coordinates>
                106.816543,10.896864,0
                106.815209,10.89683,0
                106.815062,10.896748,0
                106.81514,10.896402,0
                106.815324,10.895735,0
                106.81557,10.895481,0
                106.815994,10.895218,0
                106.816356,10.895015,0
                106.816555,10.894936,0
                106.816603,10.894867,0
                106.816543,10.896864,0
              </coordinates>
            </LinearRing>
          </outerBoundaryIs>
        </Polygon>
      </MultiGeometry>
    </Placemark>
  </Document>
</kml>